<?xml version="1.0" encoding="UTF-8" standalone="no"?>
<!-- Created with Inkscape (http://www.inkscape.org/) -->
<svg
   xmlns:dc="http://purl.org/dc/elements/1.1/"
   xmlns:cc="http://creativecommons.org/ns#"
   xmlns:rdf="http://www.w3.org/1999/02/22-rdf-syntax-ns#"
   xmlns:svg="http://www.w3.org/2000/svg"
   xmlns="http://www.w3.org/2000/svg"
   xmlns:xlink="http://www.w3.org/1999/xlink"
   xmlns:sodipodi="http://sodipodi.sourceforge.net/DTD/sodipodi-0.dtd"
   xmlns:inkscape="http://www.inkscape.org/namespaces/inkscape"
   inkscape:export-ydpi="240"
   inkscape:export-xdpi="240"
   inkscape:export-filename="/home/sander/Desktop/presentation.png"
   sodipodi:docname="presentation.svg"
   sodipodi:docbase="/home/dobey/Projects/gnome-icon-theme/scalable/mimetypes"
   inkscape:version="0.46"
   sodipodi:version="0.32"
   id="svg249"
   height="48"
   width="48"
   inkscape:output_extension="org.inkscape.output.svg.inkscape"
   version="1.0">
  <defs
     id="defs3">
    <inkscape:perspective
       sodipodi:type="inkscape:persp3d"
       inkscape:vp_x="0 : 24 : 1"
       inkscape:vp_y="0 : 1000 : 0"
       inkscape:vp_z="48 : 24 : 1"
       inkscape:persp3d-origin="24 : 16 : 1"
       id="perspective98" />
    <linearGradient
       id="linearGradient2273">
      <stop
         id="stop2275"
         offset="0"
         style="stop-color:#555753;stop-opacity:1" />
      <stop
         id="stop2277"
         offset="1"
         style="stop-color:#babdb6;stop-opacity:1" />
    </linearGradient>
    <linearGradient
       id="linearGradient5989">
      <stop
         id="stop5991"
         offset="0"
         style="stop-color:#888a85;stop-opacity:1" />
      <stop
         id="stop5993"
         offset="1"
         style="stop-color:#3b3c3a;stop-opacity:1" />
    </linearGradient>
    <linearGradient
       id="linearGradient6157">
      <stop
         style="stop-color:#555753;stop-opacity:1;"
         offset="0"
         id="stop6159" />
      <stop
         style="stop-color:#888a85;stop-opacity:1"
         offset="1"
         id="stop6161" />
    </linearGradient>
    <linearGradient
       inkscape:collect="always"
       xlink:href="#linearGradient6157"
       id="linearGradient6163"
       x1="13.125"
       y1="18.869318"
       x2="12.875"
       y2="16.955553"
       gradientUnits="userSpaceOnUse"
       gradientTransform="matrix(1.9939198,0,0,1.8138305,2.2026816,8.0655633)" />
    <linearGradient
       y2="25.015009"
       x2="-20.821646"
       y1="30.827509"
       x1="-17.863041"
       gradientUnits="userSpaceOnUse"
       id="linearGradient10016"
       xlink:href="#linearGradient6719"
       inkscape:collect="always" />
    <linearGradient
       y2="28.195539"
       x2="-9.7352734"
       y1="24.453547"
       x1="-16.387411"
       gradientUnits="userSpaceOnUse"
       id="linearGradient10014"
       xlink:href="#linearGradient6711"
       inkscape:collect="always" />
    <linearGradient
       y2="33.016045"
       x2="-14.360273"
       y1="18.516047"
       x1="-22.976406"
       gradientUnits="userSpaceOnUse"
       id="linearGradient10012"
       xlink:href="#linearGradient6699"
       inkscape:collect="always" />
    <linearGradient
       y2="18.75"
       x2="-19.5"
       y1="29"
       x1="-20.75"
       gradientUnits="userSpaceOnUse"
       id="linearGradient10002"
       xlink:href="#linearGradient6687"
       inkscape:collect="always" />
    <radialGradient
       id="aigrd7"
       cx="24.774401"
       cy="30.991199"
       r="0.59020001"
       fx="24.774401"
       fy="30.991199"
       gradientUnits="userSpaceOnUse">
      <stop
         offset="0"
         style="stop-color:#F0F0F0"
         id="stop13046" />
      <stop
         offset="1"
         style="stop-color:#848484"
         id="stop13048" />
    </radialGradient>
    <linearGradient
       id="aigrd6"
       gradientUnits="userSpaceOnUse"
       x1="24.6035"
       y1="9.3432999"
       x2="24.6035"
       y2="10.4377">
      <stop
         offset="0"
         style="stop-color:#F0F0F0"
         id="stop13035" />
      <stop
         offset="1"
         style="stop-color:#686868"
         id="stop13037" />
    </linearGradient>
    <linearGradient
       id="aigrd5"
       gradientUnits="userSpaceOnUse"
       x1="27.294901"
       y1="25.4727"
       x2="20.945299"
       y2="11.0039">
      <stop
         offset="0"
         style="stop-color:#f5f5f5;stop-opacity:1;"
         id="stop13012" />
      <stop
         offset="1"
         style="stop-color:#e1e1e1;stop-opacity:1;"
         id="stop13014" />
    </linearGradient>
    <linearGradient
       id="linearGradient9214"
       inkscape:collect="always">
      <stop
         id="stop9216"
         offset="0"
         style="stop-color:#5b5b5b;stop-opacity:1;" />
      <stop
         id="stop9218"
         offset="1"
         style="stop-color:#5b5b5b;stop-opacity:0;" />
    </linearGradient>
    <linearGradient
       id="linearGradient6699">
      <stop
         id="stop6701"
         offset="0.0000000"
         style="stop-color:#ff7171;stop-opacity:1.0000000;" />
      <stop
         id="stop6703"
         offset="1.0000000"
         style="stop-color:#cc0000;stop-opacity:1.0000000;" />
    </linearGradient>
    <linearGradient
       id="linearGradient6711">
      <stop
         id="stop6713"
         offset="0.0000000"
         style="stop-color:#5b8ccb;stop-opacity:1.0000000;" />
      <stop
         id="stop6715"
         offset="1.0000000"
         style="stop-color:#3465a4;stop-opacity:1.0000000;" />
    </linearGradient>
    <linearGradient
       id="linearGradient6719">
      <stop
         id="stop6721"
         offset="0"
         style="stop-color:#73d216;stop-opacity:1;" />
      <stop
         id="stop6723"
         offset="1.0000000"
         style="stop-color:#d5f7b3;stop-opacity:1.0000000;" />
    </linearGradient>
    <linearGradient
       id="linearGradient6687"
       inkscape:collect="always">
      <stop
         id="stop6689"
         offset="0"
         style="stop-color:#ffffff;stop-opacity:1;" />
      <stop
         id="stop6691"
         offset="1"
         style="stop-color:#ffffff;stop-opacity:0;" />
    </linearGradient>
    <radialGradient
       gradientUnits="userSpaceOnUse"
       r="13.804391"
       fy="47.400623"
       fx="28.283663"
       cy="47.400623"
       cx="28.283663"
       gradientTransform="scale(1.164226,0.85894)"
       id="radialGradient2462"
       xlink:href="#linearGradient2456"
       inkscape:collect="always" />
    <linearGradient
       id="linearGradient2456"
       inkscape:collect="always">
      <stop
         id="stop2458"
         offset="0"
         style="stop-color:#000000;stop-opacity:1;" />
      <stop
         id="stop2460"
         offset="1"
         style="stop-color:#000000;stop-opacity:0;" />
    </linearGradient>
    <linearGradient
       id="linearGradient10020"
       inkscape:collect="always">
      <stop
         id="stop10022"
         offset="0"
         style="stop-color:#ffffff;stop-opacity:1;" />
      <stop
         id="stop10024"
         offset="1"
         style="stop-color:#ffffff;stop-opacity:0;" />
    </linearGradient>
    <radialGradient
       inkscape:collect="always"
       xlink:href="#aigrd7"
       id="radialGradient6248"
       gradientUnits="userSpaceOnUse"
       gradientTransform="matrix(2.9940102,0,0,2.99401,-51.236488,-55.996956)"
       cx="24.774401"
       cy="30.991199"
       fx="24.774401"
       fy="30.991199"
       r="0.59020001" />
    <linearGradient
       inkscape:collect="always"
       xlink:href="#aigrd6"
       id="linearGradient6265"
       gradientUnits="userSpaceOnUse"
       gradientTransform="matrix(1.8388064,0,0,2.5267492,-22.958199,-11.776102)"
       x1="24.919374"
       y1="6.1478682"
       x2="24.919374"
       y2="7.4600263" />
    <linearGradient
       inkscape:collect="always"
       xlink:href="#linearGradient10020"
       id="linearGradient6270"
       gradientUnits="userSpaceOnUse"
       gradientTransform="matrix(0.9416341,0,0,0.9726521,-0.5038837,1.8614716)"
       x1="23.379572"
       y1="28.369167"
       x2="24.24518"
       y2="6.0000024" />
    <linearGradient
       inkscape:collect="always"
       xlink:href="#aigrd5"
       id="linearGradient6275"
       gradientUnits="userSpaceOnUse"
       gradientTransform="matrix(1.7650414,0,0,1.5142804,-19.841476,-9.170932)"
       x1="26.543743"
       y1="21.270069"
       x2="20.945299"
       y2="11.0039" />
    <linearGradient
       inkscape:collect="always"
       xlink:href="#linearGradient5989"
       id="linearGradient2269"
       gradientUnits="userSpaceOnUse"
       gradientTransform="matrix(0.5079959,0,0,0.5913182,17.608,28.103648)"
       x1="11.598517"
       y1="36.083389"
       x2="11.598517"
       y2="18.823425" />
    <linearGradient
       inkscape:collect="always"
       xlink:href="#linearGradient2273"
       id="linearGradient2271"
       gradientUnits="userSpaceOnUse"
       x1="23.599689"
       y1="40.205215"
       x2="23.599689"
       y2="46.172237" />
    <radialGradient
       inkscape:collect="always"
       xlink:href="#linearGradient9214"
       id="radialGradient2285"
       gradientUnits="userSpaceOnUse"
       gradientTransform="matrix(1,0,0,0.181159,0,36.04743)"
       cx="26.162951"
       cy="44.022526"
       fx="26.162951"
       fy="44.022526"
       r="12.197592" />
    <radialGradient
       inkscape:collect="always"
       xlink:href="#linearGradient9214"
       id="radialGradient2293"
       gradientUnits="userSpaceOnUse"
       gradientTransform="matrix(1,0,0,0.181159,0,36.04743)"
       cx="26.162951"
       cy="44.022526"
       fx="26.162951"
       fy="44.022526"
       r="12.197592" />
    <radialGradient
       inkscape:collect="always"
       xlink:href="#linearGradient9214"
       id="radialGradient2297"
       gradientUnits="userSpaceOnUse"
       gradientTransform="matrix(1,0,0,0.181159,0,36.04743)"
       cx="26.162951"
       cy="44.022526"
       fx="26.162951"
       fy="44.022526"
       r="12.197592" />
    <radialGradient
       inkscape:collect="always"
       xlink:href="#linearGradient9214"
       id="radialGradient2301"
       gradientUnits="userSpaceOnUse"
       gradientTransform="matrix(1,0,0,0.181159,0,36.04743)"
       cx="26.162951"
       cy="44.022526"
       fx="26.162951"
       fy="44.022526"
       r="12.197592" />
  </defs>
  <sodipodi:namedview
     inkscape:window-y="24"
     inkscape:window-x="5"
     inkscape:window-height="973"
     inkscape:window-width="1680"
     inkscape:document-units="px"
     inkscape:grid-bbox="true"
     showgrid="false"
     inkscape:current-layer="layer5"
     inkscape:cy="3.8995669"
     inkscape:cx="27.371774"
     inkscape:zoom="1"
     inkscape:pageshadow="2"
     inkscape:pageopacity="0.0"
     borderopacity="0.25490196"
     bordercolor="#666666"
     pagecolor="#ffffff"
     id="base"
     inkscape:showpageshadow="false"
     width="48px"
     height="48px" />
  <metadata
     id="metadata4">
    <rdf:RDF>
      <cc:Work
         rdf:about="">
        <dc:format>image/svg+xml</dc:format>
        <dc:type
           rdf:resource="http://purl.org/dc/dcmitype/StillImage" />
        <dc:title>Spreadsheet</dc:title>
        <dc:subject>
          <rdf:Bag>
            <rdf:li>powerpoint</rdf:li>
            <rdf:li>spreadsheet</rdf:li>
            <rdf:li>impress</rdf:li>
          </rdf:Bag>
        </dc:subject>
        <cc:license
           rdf:resource="http://creativecommons.org/licenses/GPL/2.0/" />
        <dc:creator>
          <cc:Agent>
            <dc:title>Jakub Steiner</dc:title>
          </cc:Agent>
        </dc:creator>
        <dc:source>http://jimmac.musichall.cz</dc:source>
      </cc:Work>
      <cc:License
         rdf:about="http://creativecommons.org/licenses/GPL/2.0/">
        <cc:permits
           rdf:resource="http://web.resource.org/cc/Reproduction" />
        <cc:permits
           rdf:resource="http://web.resource.org/cc/Distribution" />
        <cc:requires
           rdf:resource="http://web.resource.org/cc/Notice" />
        <cc:permits
           rdf:resource="http://web.resource.org/cc/DerivativeWorks" />
        <cc:requires
           rdf:resource="http://web.resource.org/cc/ShareAlike" />
        <cc:requires
           rdf:resource="http://web.resource.org/cc/SourceCode" />
      </cc:License>
    </rdf:RDF>
  </metadata>
  <g
     inkscape:groupmode="layer"
     id="layer6"
     inkscape:label="Shadow" />
  <g
     style="display:inline"
     inkscape:groupmode="layer"
     inkscape:label="Base"
     id="layer1" />
  <g
     inkscape:groupmode="layer"
     id="layer5"
     inkscape:label="Text"
     style="display:inline">
    <path
       sodipodi:type="arc"
       style="opacity:0.22813688;color:#000000;fill:url(#radialGradient2297);fill-opacity:1;fill-rule:nonzero;stroke:none;stroke-width:0.5;stroke-linecap:round;stroke-linejoin:miter;marker:none;marker-start:none;marker-mid:none;marker-end:none;stroke-miterlimit:4;stroke-dasharray:none;stroke-dashoffset:0;stroke-opacity:1;visibility:visible;display:inline;overflow:visible"
       id="path2295"
       sodipodi:cx="26.162951"
       sodipodi:cy="44.022526"
       sodipodi:rx="12.197592"
       sodipodi:ry="2.2097087"
       d="M 38.360542 44.022526 A 12.197592 2.2097087 0 1 1  13.965359,44.022526 A 12.197592 2.2097087 0 1 1  38.360542 44.022526 z"
       inkscape:r_cx="true"
       inkscape:r_cy="true"
       transform="matrix(0.2869419,0,0,0.6788222,15.992754,14.61653)" />
    <path
       sodipodi:type="arc"
       style="opacity:0.21673004;color:#000000;fill:url(#radialGradient2285);fill-opacity:1;fill-rule:nonzero;stroke:none;stroke-width:0.5;stroke-linecap:round;stroke-linejoin:miter;marker:none;marker-start:none;marker-mid:none;marker-end:none;stroke-miterlimit:4;stroke-dasharray:none;stroke-dashoffset:0;stroke-opacity:1;visibility:visible;display:inline;overflow:visible"
       id="path2283"
       sodipodi:cx="26.162951"
       sodipodi:cy="44.022526"
       sodipodi:rx="12.197592"
       sodipodi:ry="2.2097087"
       d="M 38.360542 44.022526 A 12.197592 2.2097087 0 1 1  13.965359,44.022526 A 12.197592 2.2097087 0 1 1  38.360542 44.022526 z"
       inkscape:r_cx="true"
       inkscape:r_cy="true"
       transform="matrix(0.4649748,0,0,0.8614594,2.7603633,7.5650096)" />
    <path
       style="fill:url(#linearGradient2269);fill-opacity:1;stroke:none;stroke-width:1;stroke-linecap:round;stroke-linejoin:round;stroke-miterlimit:4;stroke-dashoffset:0;stroke-opacity:1"
       d="M 23.03125,38.015873 L 24.09375,38.015873 C 24.665063,38.015873 25.125,38.47581 25.125,39.047123 L 24.734375,43.968751 C 24.734375,44.540063 24.274438,45.000001 23.703125,45.000001 L 23.34375,45.000001 C 22.772437,45.000001 22.3125,44.540063 22.3125,43.968751 L 21.84375,39.047123 C 21.84375,38.47581 22.459937,38.015873 23.03125,38.015873 z "
       id="rect5243"
       sodipodi:nodetypes="ccccccccc" />
    <path
       inkscape:r_cy="true"
       inkscape:r_cx="true"
       id="path10010"
       d="M 24.476921,37.152005 L 22.575691,37.152005 L 22.575691,6.8806014 L 24.476921,6.8806014 L 24.476921,37.150617 L 24.476921,37.152005 z "
       style="fill:#a4a4a4;fill-rule:nonzero;stroke:#555753;stroke-width:0.99999911;stroke-miterlimit:4;stroke-opacity:1" />
    <path
       sodipodi:type="arc"
       style="opacity:0.21673004;color:#000000;fill:url(#radialGradient2293);fill-opacity:1;fill-rule:nonzero;stroke:none;stroke-width:0.5;stroke-linecap:round;stroke-linejoin:miter;marker:none;marker-start:none;marker-mid:none;marker-end:none;stroke-miterlimit:4;stroke-dasharray:none;stroke-dashoffset:0;stroke-opacity:1;visibility:visible;display:inline;overflow:visible"
       id="path2291"
       sodipodi:cx="26.162951"
       sodipodi:cy="44.022526"
       sodipodi:rx="12.197592"
       sodipodi:ry="2.2097087"
       d="M 38.360542 44.022526 A 12.197592 2.2097087 0 1 1  13.965359,44.022526 A 12.197592 2.2097087 0 1 1  38.360542 44.022526 z"
       inkscape:r_cx="true"
       inkscape:r_cy="true"
       transform="matrix(0.4649748,0,0,0.8614594,20.760363,7.5650096)" />
    <path
       style="fill:none;fill-opacity:1;fill-rule:nonzero;stroke:url(#linearGradient6163);stroke-width:1.80136061;stroke-linejoin:round;stroke-miterlimit:4;stroke-dasharray:none;stroke-opacity:1;display:inline"
       d="M 21.176361,38.963182 L 12.82891,46.099323 L 15.59933,46.099323 L 22.046041,39.467504 L 21.176361,38.963182 z M 25.971381,38.94789 L 25.008139,39.467504 L 32.54765,46.099323 L 35.09932,46.099323 L 25.971381,38.94789 z "
       id="path3215"
       sodipodi:nodetypes="cccccccccc" />
    <path
       style="fill:#a4a4a4;fill-rule:nonzero;stroke:none;stroke-miterlimit:4"
       d="M 24.014538,37.152006 L 23.038084,37.152006 L 23.038084,6.880601 L 24.014538,6.880601 L 24.014538,37.15062 L 24.014538,37.152006 z "
       id="path13009"
       inkscape:r_cx="true"
       inkscape:r_cy="true" />
    <path
       style="fill:url(#linearGradient6275);fill-rule:nonzero;stroke:#888a85;stroke-width:0.99999869;stroke-linejoin:round;stroke-miterlimit:4;stroke-opacity:1"
       d="M 40.499999,33.500002 L 6.4999997,33.500002 L 6.4999997,6.4019446 L 40.499999,6.4019446 L 40.499999,33.500002 L 40.499999,33.500002 z "
       id="path13016"
       inkscape:r_cx="true"
       inkscape:r_cy="true" />
    <g
       transform="matrix(0.781814,0,0,0.781814,4.0555526,11.867431)"
       style="fill:#a4a4a4;fill-rule:nonzero;stroke:#555753;stroke-width:1.96851754;stroke-miterlimit:4;stroke-opacity:1"
       id="g13020"
       inkscape:r_cx="true"
       inkscape:r_cy="true" />
    <path
       inkscape:r_cy="true"
       inkscape:r_cx="true"
       id="path10018"
       d="M 39.499999,32.5 L 7.4999991,32.5 L 7.4999991,8.1837098 L 39.499999,8.1837098 L 39.499999,32.5 L 39.499999,32.5 z "
       style="fill:none;fill-rule:nonzero;stroke:url(#linearGradient6270);stroke-width:0.99999863;stroke-linejoin:miter;stroke-miterlimit:4;stroke-opacity:1" />
    <path
       style="opacity:0.15999995;fill:#000000;fill-rule:nonzero;stroke:none;stroke-miterlimit:4"
       d="M 39.119582,7.9447829 L 6.9549386,7.9447829 L 6.9549386,10.733934 C 8.7682988,7.7045802 39.119582,7.9447829 39.119582,7.9447829 z "
       id="path13041"
       inkscape:r_cx="true"
       inkscape:r_cy="true" />
    <rect
       style="color:#000000;fill:#000000;fill-opacity:0.22807013;fill-rule:nonzero;stroke:none;stroke-width:0.99813098;stroke-linecap:butt;stroke-linejoin:miter;marker:none;marker-start:none;marker-mid:none;marker-end:none;stroke-miterlimit:4;stroke-dashoffset:0;stroke-opacity:1;visibility:visible;display:inline;overflow:visible"
       id="rect13420"
       width="9.9807148"
       height="1.1307591"
       x="28.019285"
       y="11"
       inkscape:r_cx="true"
       inkscape:r_cy="true" />
    <rect
       style="color:#000000;fill:url(#linearGradient6265);fill-opacity:1;fill-rule:nonzero;stroke:#555753;stroke-width:0.99999911;stroke-linecap:butt;stroke-linejoin:miter;marker:none;marker-start:none;marker-mid:none;marker-end:none;stroke-miterlimit:4;stroke-dasharray:none;stroke-dashoffset:0;stroke-opacity:1;visibility:visible;display:inline;overflow:visible"
       id="rect9222"
       width="37.758499"
       height="4.000001"
       x="4.8572435"
       y="3.4999995"
       inkscape:r_cx="true"
       inkscape:r_cy="true"
       rx="1.8978764"
       ry="1.8978764" />
    <rect
       inkscape:r_cy="true"
       inkscape:r_cx="true"
       y="25"
       x="11"
       height="1"
       width="22"
       id="rect9238"
       style="color:#000000;fill:#000000;fill-opacity:0.22807013;fill-rule:nonzero;stroke:none;stroke-width:0.99813098;stroke-linecap:butt;stroke-linejoin:miter;marker:none;marker-start:none;marker-mid:none;marker-end:none;stroke-miterlimit:4;stroke-dashoffset:0;stroke-opacity:1;visibility:visible;display:inline;overflow:visible" />
    <path
       sodipodi:type="arc"
       style="fill:url(#radialGradient2462);fill-opacity:1;fill-rule:evenodd;stroke:none;stroke-width:1px;stroke-linecap:butt;stroke-linejoin:miter;stroke-opacity:1;display:inline"
       id="path1693"
       sodipodi:cx="32.92857"
       sodipodi:cy="40.714287"
       sodipodi:rx="16.071428"
       sodipodi:ry="11.857142"
       d="M 48.999998 40.714287 A 16.071428 11.857142 0 1 1  16.857141,40.714287 A 16.071428 11.857142 0 1 1  48.999998 40.714287 z"
       transform="matrix(0.4912572,0,0,0.4902712,2.0372782,-2.9985001)"
       inkscape:r_cx="true"
       inkscape:r_cy="true" />
    <g
       style="display:inline"
       id="g6727"
       transform="matrix(0.614842,0,0,0.5489568,29.374578,2.4329803)"
       inkscape:r_cx="true"
       inkscape:r_cy="true">
      <path
         id="path3931"
         d="M -27.528542,18.092794 C -30.097576,19.791125 -31.511475,22.097833 -31.511475,24.590696 L -31.511475,26.659988 C -31.511475,29.150828 -30.097576,31.458211 -27.528542,33.156541 C -25.102053,34.760445 -21.895416,35.644009 -18.499359,35.644009 C -15.104587,35.644009 -11.89795,34.760445 -9.4701774,33.156541 C -6.9024275,31.458211 -5.4885277,29.151503 -5.4885277,26.659988 L -5.4885277,24.590696 C -5.4885277,22.097833 -6.9030696,19.79045 -9.4701774,18.092794 C -11.897308,16.490239 -15.103945,15.606001 -18.499359,15.606001 C -21.895416,15.606001 -25.102053,16.490239 -27.528542,18.092794 z "
         style="fill:#670000;fill-opacity:1;fill-rule:nonzero;stroke:none;stroke-miterlimit:4"
         inkscape:r_cx="true"
         inkscape:r_cy="true" />
      <path
         id="path3933"
         d="M -7.0244261,24.453547 C -8.4030105,21.067003 -13.077484,18.573465 -18.636768,18.573465 C -24.196053,18.573465 -28.870526,21.067003 -30.249111,24.453547 L -30.663906,24.453547 L -30.663906,26.523514 C -30.663906,30.913678 -25.27863,34.472213 -18.636768,34.472213 C -11.994265,34.472213 -6.6102729,30.913678 -6.6102729,26.523514 L -6.6102729,24.453547 L -7.0244261,24.453547 L -7.0244261,24.453547 z "
         style="fill:#a40000;fill-rule:nonzero;stroke:none;stroke-miterlimit:4"
         inkscape:r_cx="true"
         inkscape:r_cy="true" />
      <path
         id="path3935"
         d="M -6.6102729,24.453547 C -6.6102729,28.844385 -11.994265,32.402921 -18.636768,32.402921 C -25.279272,32.402921 -30.663906,28.844385 -30.663906,24.453547 C -30.663906,20.062708 -25.27863,16.504173 -18.636768,16.504173 C -11.994265,16.504173 -6.6102729,20.062708 -6.6102729,24.453547 L -6.6102729,24.453547 z "
         style="fill:url(#linearGradient10012);fill-opacity:1;fill-rule:nonzero;stroke:none;stroke-miterlimit:4"
         inkscape:r_cx="true"
         inkscape:r_cy="true" />
      <path
         id="path3937"
         d="M -6.6102729,26.833098 L -6.6256833,24.666681 C -7.9297843,29.167459 -10.862246,31.074203 -14.549173,32.007678 L -14.549173,34.002103 C -10.558534,32.998483 -6.9871844,30.713358 -6.6102729,26.833098 L -6.6102729,26.833098 z "
         style="fill:#204a87;fill-rule:nonzero;stroke:none;stroke-miterlimit:4"
         inkscape:r_cx="true"
         inkscape:r_cy="true" />
      <path
         id="path3939"
         d="M -6.6102729,24.453547 C -6.8857329,29.533025 -13.16802,31.849176 -14.571646,31.937532 L -18.637411,24.453547 L -6.610915,24.453547 L -6.6102729,24.453547 z "
         style="fill:url(#linearGradient10014);fill-opacity:1;fill-rule:nonzero;stroke:none;stroke-miterlimit:4"
         inkscape:r_cx="true"
         inkscape:r_cy="true" />
      <path
         id="path3941"
         d="M -21.154435,34.298198 L -21.154435,32.228906 C -18.891039,32.523652 -16.814494,32.575587 -14.571646,32.015097 L -14.549173,34.002778 C -16.428593,34.619249 -19.36876,34.648251 -21.154435,34.298873 L -21.154435,34.298198 z "
         style="fill:#4e9a06;fill-rule:nonzero;stroke:none;stroke-miterlimit:4"
         inkscape:r_cx="true"
         inkscape:r_cy="true" />
      <path
         id="path3943"
         d="M -18.637411,24.454221 L -14.571646,31.937532 C -17.06106,32.88652 -21.154435,32.228906 -21.154435,32.228906 L -18.637411,24.454221 z "
         style="fill:url(#linearGradient10016);fill-opacity:1;fill-rule:nonzero;stroke:none;stroke-miterlimit:4"
         inkscape:r_cx="true"
         inkscape:r_cy="true" />
      <path
         transform="matrix(0.918516,0,0,0.860808,-1.517642,3.392802)"
         d="M -6.875 24.375 A 11.75 7.75 0 1 1  -30.375,24.375 A 11.75 7.75 0 1 1  -6.875 24.375 z"
         sodipodi:ry="7.75"
         sodipodi:rx="11.75"
         sodipodi:cy="24.375"
         sodipodi:cx="-18.625"
         id="path5959"
         style="opacity:0.31111115;color:#000000;fill:none;fill-opacity:1;fill-rule:evenodd;stroke:url(#linearGradient10002);stroke-width:1.93576264;stroke-linecap:butt;stroke-linejoin:miter;marker:none;marker-start:none;marker-mid:none;marker-end:none;stroke-miterlimit:4;stroke-dasharray:none;stroke-dashoffset:0;stroke-opacity:1;visibility:visible;display:block;overflow:visible"
         sodipodi:type="arc"
         inkscape:r_cx="true"
         inkscape:r_cy="true" />
    </g>
    <g
       inkscape:r_cy="true"
       inkscape:r_cx="true"
       id="g10004"
       style="fill:#a4a4a4;fill-opacity:1;fill-rule:nonzero;stroke:none;stroke-miterlimit:4"
       transform="matrix(1.5276664,0,0,1.5880228,-14.224975,-11.103712)">
      <path
         sodipodi:nodetypes="ccccc"
         style="fill:#a4a4a4;fill-opacity:1"
         inkscape:r_cy="true"
         inkscape:r_cx="true"
         id="path10006"
         d="M 32.237338,35.959 L 25.646333,30.94588 L 25.003016,31.247964 L 30.91042,35.955 L 32.237338,35.959 z " />
      <path
         sodipodi:nodetypes="ccccc"
         style="fill:#a4a4a4;fill-opacity:1"
         inkscape:r_cy="true"
         inkscape:r_cx="true"
         id="path10008"
         d="M 17.800209,35.959 L 23.883577,30.921289 L 24.343671,31.307 L 19.105671,35.955 L 17.800209,35.959 z " />
    </g>
    <path
       style="color:#000000;fill:url(#linearGradient2271);fill-opacity:1;fill-rule:evenodd;stroke:none;stroke-width:1;stroke-linecap:butt;stroke-linejoin:miter;stroke-miterlimit:4;stroke-dashoffset:0;stroke-opacity:1;marker:none;marker-start:none;marker-mid:none;marker-end:none;visibility:visible;display:inline;overflow:visible"
       d="M 22.859375,38.412698 L 23.349908,44 L 23.730889,44 L 24.171875,38.412698 L 22.859375,38.412698 z "
       id="path4000"
       sodipodi:nodetypes="ccccc" />
    <path
       sodipodi:type="arc"
       style="opacity:0.20532316;color:#000000;fill:url(#radialGradient2301);fill-opacity:1;fill-rule:nonzero;stroke:none;stroke-width:0.5;stroke-linecap:round;stroke-linejoin:miter;marker:none;marker-start:none;marker-mid:none;marker-end:none;stroke-miterlimit:4;stroke-dasharray:none;stroke-dashoffset:0;stroke-opacity:1;visibility:visible;display:inline;overflow:visible"
       id="path2299"
       sodipodi:cx="26.162951"
       sodipodi:cy="44.022526"
       sodipodi:rx="12.197592"
       sodipodi:ry="2.2097087"
       d="M 38.360542 44.022526 A 12.197592 2.2097087 0 1 1  13.965359,44.022526 A 12.197592 2.2097087 0 1 1  38.360542 44.022526 z"
       inkscape:r_cx="true"
       inkscape:r_cy="true"
       transform="matrix(1.7893553,0,0,1.1614594,-23.314814,-5.774331)" />
    <path
       style="fill:url(#radialGradient6248);fill-rule:nonzero;stroke:#555753;stroke-width:0.99999917;stroke-miterlimit:4;stroke-opacity:1"
       d="M 25.5,37.499996 C 25.5,38.604788 24.604788,39.499999 23.5,39.499999 C 22.39521,39.499999 21.499999,38.604788 21.499999,37.499996 C 21.499999,36.398204 22.39521,35.5 23.5,35.5 C 24.604788,35.5 25.5,36.398204 25.5,37.499996 z "
       id="path13050"
       inkscape:r_cx="true"
       inkscape:r_cy="true" />
    <rect
       style="color:#000000;fill:#000000;fill-opacity:0.22807013;fill-rule:nonzero;stroke:none;stroke-width:0.99813098;stroke-linecap:butt;stroke-linejoin:miter;marker:none;marker-start:none;marker-mid:none;marker-end:none;stroke-miterlimit:4;stroke-dashoffset:0;stroke-opacity:1;visibility:visible;display:inline;overflow:visible"
       id="rect3994"
       width="22"
       height="1"
       x="11"
       y="29"
       inkscape:r_cx="true"
       inkscape:r_cy="true" />
    <rect
       inkscape:r_cy="true"
       inkscape:r_cx="true"
       y="14"
       x="28.019285"
       height="1.0755892"
       width="9.9807148"
       id="rect3996"
       style="color:#000000;fill:#000000;fill-opacity:0.22807013;fill-rule:nonzero;stroke:none;stroke-width:0.99813098;stroke-linecap:butt;stroke-linejoin:miter;marker:none;marker-start:none;marker-mid:none;marker-end:none;stroke-miterlimit:4;stroke-dashoffset:0;stroke-opacity:1;visibility:visible;display:inline;overflow:visible" />
    <rect
       style="color:#000000;fill:#000000;fill-opacity:0.22807013;fill-rule:nonzero;stroke:none;stroke-width:0.99813098;stroke-linecap:butt;stroke-linejoin:miter;marker:none;marker-start:none;marker-mid:none;marker-end:none;stroke-miterlimit:4;stroke-dashoffset:0;stroke-opacity:1;visibility:visible;display:inline;overflow:visible"
       id="rect3998"
       width="9.9807148"
       height="1"
       x="28.019285"
       y="20"
       inkscape:r_cx="true"
       inkscape:r_cy="true" />
    <rect
       style="color:#000000;fill:#000000;fill-opacity:0.22807013;fill-rule:nonzero;stroke:none;stroke-width:0.99813098;stroke-linecap:butt;stroke-linejoin:miter;marker:none;marker-start:none;marker-mid:none;marker-end:none;stroke-miterlimit:4;stroke-dashoffset:0;stroke-opacity:1;visibility:visible;display:inline;overflow:visible"
       id="rect6283"
       width="9.9807148"
       height="1"
       x="28.019285"
       y="17"
       inkscape:r_cx="true"
       inkscape:r_cy="true" />
  </g>
</svg>
