<?xml version="1.0" encoding="UTF-8" standalone="no"?>
<!-- Created with Inkscape (http://www.inkscape.org/) -->
<svg
   xmlns:dc="http://purl.org/dc/elements/1.1/"
   xmlns:cc="http://creativecommons.org/ns#"
   xmlns:rdf="http://www.w3.org/1999/02/22-rdf-syntax-ns#"
   xmlns:svg="http://www.w3.org/2000/svg"
   xmlns="http://www.w3.org/2000/svg"
   xmlns:xlink="http://www.w3.org/1999/xlink"
   xmlns:sodipodi="http://sodipodi.sourceforge.net/DTD/sodipodi-0.dtd"
   xmlns:inkscape="http://www.inkscape.org/namespaces/inkscape"
   inkscape:export-ydpi="240.00000"
   inkscape:export-xdpi="240.00000"
   inkscape:export-filename="/home/sander/Desktop/spreadsheet.png"
   sodipodi:docname="spreadsheet.svg"
   sodipodi:docbase="/home/dobey/Projects/gnome-icon-theme/scalable/mimetypes"
   inkscape:version="0.46"
   sodipodi:version="0.32"
   id="svg249"
   height="48.000000px"
   width="48.000000px"
   inkscape:output_extension="org.inkscape.output.svg.inkscape">
  <defs
     id="defs3">
    <inkscape:perspective
       sodipodi:type="inkscape:persp3d"
       inkscape:vp_x="0 : 24 : 1"
       inkscape:vp_y="0 : 1000 : 0"
       inkscape:vp_z="48 : 24 : 1"
       inkscape:persp3d-origin="24 : 16 : 1"
       id="perspective146" />
    <linearGradient
       inkscape:collect="always"
       id="linearGradient5635">
      <stop
         style="stop-color:#729fcf;stop-opacity:1;"
         offset="0"
         id="stop5637" />
      <stop
         style="stop-color:#729fcf;stop-opacity:0;"
         offset="1"
         id="stop5639" />
    </linearGradient>
    <linearGradient
       inkscape:collect="always"
       xlink:href="#linearGradient5635"
       id="linearGradient5641"
       x1="79.5"
       y1="388.22964"
       x2="79.5"
       y2="396.5032"
       gradientUnits="userSpaceOnUse" />
    <linearGradient
       id="linearGradient5659">
      <stop
         style="stop-color:#ffffff;stop-opacity:1;"
         offset="0"
         id="stop5661" />
      <stop
         style="stop-color:#ffffff;stop-opacity:1;"
         offset="1"
         id="stop5663" />
    </linearGradient>
    <linearGradient
       inkscape:collect="always"
       xlink:href="#linearGradient5659"
       id="linearGradient5665"
       x1="74.875"
       y1="389.75"
       x2="74.875"
       y2="382.375"
       gradientUnits="userSpaceOnUse" />
    <linearGradient
       id="linearGradient6333">
      <stop
         style="stop-color:#204a87;stop-opacity:1"
         offset="0"
         id="stop6335" />
      <stop
         style="stop-color:#204a87;stop-opacity:0;"
         offset="1"
         id="stop6337" />
    </linearGradient>
    <linearGradient
       inkscape:collect="always"
       xlink:href="#linearGradient6333"
       id="linearGradient5211"
       gradientUnits="userSpaceOnUse"
       gradientTransform="translate(-1,0)"
       x1="81.5"
       y1="368.5"
       x2="83"
       y2="368" />
    <linearGradient
       id="linearGradient6341">
      <stop
         style="stop-color:#729fcf;stop-opacity:1"
         offset="0"
         id="stop6343" />
      <stop
         style="stop-color:#729fcf;stop-opacity:0;"
         offset="1"
         id="stop6345" />
    </linearGradient>
    <linearGradient
       inkscape:collect="always"
       xlink:href="#linearGradient6341"
       id="linearGradient5209"
       gradientUnits="userSpaceOnUse"
       gradientTransform="translate(-1,0)"
       x1="81.5"
       y1="370"
       x2="83.5"
       y2="369.5" />
    <linearGradient
       inkscape:collect="always"
       id="linearGradient3520">
      <stop
         style="stop-color:#000000;stop-opacity:0.41295547"
         offset="0"
         id="stop3522" />
      <stop
         style="stop-color:#000000;stop-opacity:0;"
         offset="1"
         id="stop3524" />
    </linearGradient>
    <linearGradient
       inkscape:collect="always"
       xlink:href="#linearGradient3520"
       id="linearGradient6453"
       gradientUnits="userSpaceOnUse"
       gradientTransform="matrix(0.9223058,0,0,0.9185751,-92.44737,361.3257)"
       x1="-18.588562"
       y1="11.052948"
       x2="-28.789402"
       y2="14.069944" />
    <linearGradient
       id="linearGradient3671">
      <stop
         style="stop-color:#ffffff;stop-opacity:1;"
         offset="0"
         id="stop3673" />
      <stop
         id="stop3691"
         offset="0.47533694"
         style="stop-color:#ffffff;stop-opacity:1;" />
      <stop
         style="stop-color:#ffffff;stop-opacity:0;"
         offset="1"
         id="stop3675" />
    </linearGradient>
    <radialGradient
       inkscape:collect="always"
       xlink:href="#linearGradient3671"
       id="radialGradient6457"
       gradientUnits="userSpaceOnUse"
       gradientTransform="matrix(0.4073362,-0.2798276,0.7510293,1.0932492,-115.18484,351.56213)"
       cx="-26.305403"
       cy="10.108011"
       fx="-26.305403"
       fy="10.108011"
       r="7.0421038" />
    <linearGradient
       inkscape:collect="always"
       id="linearGradient3656">
      <stop
         style="stop-color:#ffffff;stop-opacity:1;"
         offset="0"
         id="stop3658" />
      <stop
         style="stop-color:#ffffff;stop-opacity:0;"
         offset="1"
         id="stop3660" />
    </linearGradient>
    <linearGradient
       inkscape:collect="always"
       xlink:href="#linearGradient3656"
       id="linearGradient6448"
       gradientUnits="userSpaceOnUse"
       x1="-26.753757"
       y1="11.566258"
       x2="-24.75"
       y2="9.687501" />
    <linearGradient
       inkscape:collect="always"
       id="linearGradient3741">
      <stop
         style="stop-color:#ffffff;stop-opacity:1;"
         offset="0"
         id="stop3743" />
      <stop
         style="stop-color:#ffffff;stop-opacity:0;"
         offset="1"
         id="stop3745" />
    </linearGradient>
    <radialGradient
       inkscape:collect="always"
       xlink:href="#linearGradient3741"
       id="radialGradient6442"
       gradientUnits="userSpaceOnUse"
       gradientTransform="matrix(1.8860258,0,0,1.1764706,-3.5441033,-4.2352941)"
       cx="4"
       cy="5.2999997"
       fx="4"
       fy="5.2999997"
       r="17" />
    <linearGradient
       inkscape:collect="always"
       id="linearGradient3613">
      <stop
         style="stop-color:#888a85;stop-opacity:1"
         offset="0"
         id="stop3615" />
      <stop
         style="stop-color:#babdb6;stop-opacity:1"
         offset="1"
         id="stop3617" />
    </linearGradient>
    <linearGradient
       inkscape:collect="always"
       xlink:href="#linearGradient3613"
       id="linearGradient6464"
       gradientUnits="userSpaceOnUse"
       gradientTransform="translate(-90,360)"
       x1="-47.5"
       y1="49.020683"
       x2="-62.75"
       y2="-22.502075" />
    <linearGradient
       id="linearGradient3683">
      <stop
         id="stop3685"
         offset="0"
         style="stop-color:#f6f6f5;stop-opacity:1;" />
      <stop
         id="stop3689"
         offset="1"
         style="stop-color:#d3d7cf;stop-opacity:1" />
    </linearGradient>
    <radialGradient
       inkscape:collect="always"
       xlink:href="#linearGradient3683"
       id="radialGradient6462"
       gradientUnits="userSpaceOnUse"
       gradientTransform="matrix(3.9957492,0,0,1.9350367,0.62141,328.83258)"
       cx="-30.249996"
       cy="35.357208"
       fx="-30.249996"
       fy="35.357208"
       r="18.000002" />
    <linearGradient
       inkscape:collect="always"
       xlink:href="#linearGradient3702"
       id="linearGradient6436"
       gradientUnits="userSpaceOnUse"
       x1="25.058096"
       y1="47.027729"
       x2="25.058096"
       y2="39.999443" />
    <radialGradient
       inkscape:collect="always"
       xlink:href="#linearGradient3688"
       id="radialGradient6434"
       gradientUnits="userSpaceOnUse"
       gradientTransform="matrix(2.003784,0,0,1.4,-20.01187,-104.4)"
       cx="4.9929786"
       cy="43.5"
       fx="4.9929786"
       fy="43.5"
       r="2.5" />
    <radialGradient
       inkscape:collect="always"
       xlink:href="#linearGradient3688"
       id="radialGradient6432"
       gradientUnits="userSpaceOnUse"
       gradientTransform="matrix(2.003784,0,0,1.4,27.98813,-17.4)"
       cx="4.9929786"
       cy="43.5"
       fx="4.9929786"
       fy="43.5"
       r="2.5" />
    <linearGradient
       inkscape:collect="always"
       xlink:href="#linearGradient3702"
       id="linearGradient6430"
       gradientUnits="userSpaceOnUse"
       x1="25.058096"
       y1="47.027729"
       x2="25.058096"
       y2="39.999443" />
    <radialGradient
       inkscape:collect="always"
       xlink:href="#linearGradient3688"
       id="radialGradient6428"
       gradientUnits="userSpaceOnUse"
       gradientTransform="matrix(2.003784,0,0,1.4,-20.01187,-104.4)"
       cx="4.9929786"
       cy="43.5"
       fx="4.9929786"
       fy="43.5"
       r="2.5" />
    <radialGradient
       inkscape:collect="always"
       xlink:href="#linearGradient3688"
       id="radialGradient6426"
       gradientUnits="userSpaceOnUse"
       gradientTransform="matrix(2.003784,0,0,1.4,27.98813,-17.4)"
       cx="4.9929786"
       cy="43.5"
       fx="4.9929786"
       fy="43.5"
       r="2.5" />
    <linearGradient
       id="linearGradient3702">
      <stop
         style="stop-color:black;stop-opacity:0;"
         offset="0"
         id="stop3704" />
      <stop
         id="stop3710"
         offset="0.5"
         style="stop-color:black;stop-opacity:1;" />
      <stop
         style="stop-color:black;stop-opacity:0;"
         offset="1"
         id="stop3706" />
    </linearGradient>
    <linearGradient
       inkscape:collect="always"
       id="linearGradient3688">
      <stop
         style="stop-color:black;stop-opacity:1;"
         offset="0"
         id="stop3690" />
      <stop
         style="stop-color:black;stop-opacity:0;"
         offset="1"
         id="stop3692" />
    </linearGradient>
  </defs>
  <sodipodi:namedview
     inkscape:window-y="117"
     inkscape:window-x="373"
     inkscape:window-height="872"
     inkscape:window-width="929"
     inkscape:document-units="px"
     inkscape:grid-bbox="true"
     showgrid="false"
     inkscape:current-layer="layer5"
     inkscape:cy="26.078999"
     inkscape:cx="74.548046"
     inkscape:zoom="1"
     inkscape:pageshadow="2"
     inkscape:pageopacity="0.0"
     borderopacity="0.25490196"
     bordercolor="#666666"
     pagecolor="#ffffff"
     id="base"
     inkscape:showpageshadow="false" />
  <metadata
     id="metadata4">
    <rdf:RDF>
      <cc:Work
         rdf:about="">
        <dc:format>image/svg+xml</dc:format>
        <dc:type
           rdf:resource="http://purl.org/dc/dcmitype/StillImage" />
        <dc:title>Office Spreadsheet</dc:title>
        <dc:subject>
          <rdf:Bag>
            <rdf:li>spreadsheet</rdf:li>
            <rdf:li>excel</rdf:li>
            <rdf:li>gnumeric</rdf:li>
            <rdf:li>opencalc</rdf:li>
            <rdf:li>office</rdf:li>
          </rdf:Bag>
        </dc:subject>
        <cc:license
           rdf:resource="" />
        <dc:creator>
          <cc:Agent>
            <dc:title>Lapo Calamandrei</dc:title>
          </cc:Agent>
        </dc:creator>
        <dc:source />
        <dc:date />
        <dc:rights>
          <cc:Agent>
            <dc:title />
          </cc:Agent>
        </dc:rights>
        <dc:publisher>
          <cc:Agent>
            <dc:title />
          </cc:Agent>
        </dc:publisher>
        <dc:identifier />
        <dc:relation />
        <dc:language />
        <dc:coverage />
        <dc:description />
        <dc:contributor>
          <cc:Agent>
            <dc:title>Jakub Steiner</dc:title>
          </cc:Agent>
        </dc:contributor>
      </cc:Work>
    </rdf:RDF>
  </metadata>
  <g
     inkscape:groupmode="layer"
     id="layer6"
     inkscape:label="Shadow" />
  <g
     style="display:inline"
     inkscape:groupmode="layer"
     inkscape:label="Base"
     id="layer1" />
  <g
     inkscape:groupmode="layer"
     id="layer5"
     inkscape:label="Text"
     style="display:inline">
    <g
       style="display:inline"
       id="g13370"
       transform="translate(150,-360)">
      <rect
         y="360"
         x="-150"
         height="48"
         width="48"
         id="rect5141"
         style="opacity:0;fill:#000000;fill-opacity:1;stroke:none;stroke-width:1;stroke-miterlimit:4;stroke-dasharray:none;display:inline" />
      <g
         transform="matrix(1.0464281,0,0,0.8888889,-151.18571,365.72224)"
         inkscape:label="Shadow"
         id="g5145"
         style="opacity:0.65587045;display:inline">
        <g
           transform="matrix(1.052632,0,0,1.285713,-1.263158,-13.42854)"
           style="opacity:0.4"
           id="g5147">
          <rect
             style="opacity:1;fill:url(#radialGradient6426);fill-opacity:1;stroke:none;stroke-width:1;stroke-linecap:round;stroke-linejoin:miter;stroke-miterlimit:4;stroke-dasharray:none;stroke-opacity:1"
             id="rect5149"
             width="5"
             height="7"
             x="38"
             y="40" />
          <rect
             style="opacity:1;fill:url(#radialGradient6428);fill-opacity:1;stroke:none;stroke-width:1;stroke-linecap:round;stroke-linejoin:miter;stroke-miterlimit:4;stroke-dasharray:none;stroke-opacity:1"
             id="rect5152"
             width="5"
             height="7"
             x="-10"
             y="-47"
             transform="scale(-1,-1)" />
          <rect
             style="opacity:1;fill:url(#linearGradient6430);fill-opacity:1;stroke:none;stroke-width:1;stroke-linecap:round;stroke-linejoin:miter;stroke-miterlimit:4;stroke-dasharray:none;stroke-opacity:1"
             id="rect5154"
             width="28"
             height="7.0000005"
             x="10"
             y="40" />
        </g>
      </g>
      <g
         transform="matrix(0.9548466,0,0,0.5555562,-148.98776,379.88887)"
         inkscape:label="Shadow"
         id="g5156"
         style="display:inline">
        <g
           transform="matrix(1.052632,0,0,1.285713,-1.263158,-13.42854)"
           style="opacity:0.4"
           id="g5158">
          <rect
             style="opacity:1;fill:url(#radialGradient6432);fill-opacity:1;stroke:none;stroke-width:1;stroke-linecap:round;stroke-linejoin:miter;stroke-miterlimit:4;stroke-dasharray:none;stroke-opacity:1"
             id="rect5160"
             width="5"
             height="7"
             x="38"
             y="40" />
          <rect
             style="opacity:1;fill:url(#radialGradient6434);fill-opacity:1;stroke:none;stroke-width:1;stroke-linecap:round;stroke-linejoin:miter;stroke-miterlimit:4;stroke-dasharray:none;stroke-opacity:1"
             id="rect5162"
             width="5"
             height="7"
             x="-10"
             y="-47"
             transform="scale(-1,-1)" />
          <rect
             style="opacity:1;fill:url(#linearGradient6436);fill-opacity:1;stroke:none;stroke-width:1;stroke-linecap:round;stroke-linejoin:miter;stroke-miterlimit:4;stroke-dasharray:none;stroke-opacity:1"
             id="rect5164"
             width="28"
             height="7.0000005"
             x="10"
             y="40" />
        </g>
      </g>
      <path
         sodipodi:nodetypes="ccsccccccc"
         id="path5166"
         d="M -141.47614,363.5 C -141.47614,363.5 -124,363.5 -122.5,363.5 C -118.62295,363.57294 -116,366 -113.5,368.5 C -111,371 -108.89232,373.75263 -108.5,377.5 C -108.5,379 -108.5,402.47614 -108.5,402.47614 C -108.5,403.59736 -109.40264,404.5 -110.52385,404.5 L -141.47614,404.5 C -142.59736,404.5 -143.5,403.59736 -143.5,402.47614 L -143.5,365.52386 C -143.5,364.40264 -142.59736,363.5 -141.47614,363.5 z"
         style="fill:url(#radialGradient6462);fill-opacity:1;stroke:url(#linearGradient6464);stroke-width:1;stroke-miterlimit:4;display:inline" />
      <path
         transform="translate(-150,360)"
         d="M 8.53125,4 C 7.6730803,4 7,4.6730802 7,5.53125 L 7,42.46875 C 7,43.32692 7.6730802,44 8.53125,44 L 39.46875,44 C 40.326919,44 41,43.326918 41,42.46875 C 41,42.46875 41,19 41,17.5 C 41,16.10803 40.513021,13.200521 38.65625,11.34375 C 36.65625,9.34375 35.65625,8.34375 33.65625,6.34375 C 31.799479,4.4869792 28.89197,4 27.5,4 C 26,4 8.53125,4 8.53125,4 z"
         id="path5168"
         style="opacity:0.68016196;fill:url(#radialGradient6442);fill-opacity:1;stroke:none;stroke-width:1;stroke-miterlimit:4;display:inline"
         inkscape:original="M 8.53125 3.5 C 7.410033 3.5 6.5 4.4100329 6.5 5.53125 L 6.5 42.46875 C 6.5 43.589967 7.4100329 44.5 8.53125 44.5 L 39.46875 44.5 C 40.589967 44.5 41.5 43.589966 41.5 42.46875 C 41.5 42.46875 41.5 19 41.5 17.5 C 41.5 16 41 13 39 11 C 37 9 36 8 34 6 C 32 4 29 3.5 27.5 3.5 C 26 3.5 8.5312499 3.5 8.53125 3.5 z "
         inkscape:radius="-0.4861359"
         sodipodi:type="inkscape:offset" />
      <path
         transform="translate(-90,360)"
         d="M -51.46875,4.5 C -52.051916,4.5 -52.5,4.9480842 -52.5,5.53125 L -52.5,42.46875 C -52.5,43.051915 -52.051914,43.5 -51.46875,43.5 L -20.53125,43.5 C -19.948085,43.5 -19.5,43.051914 -19.5,42.46875 C -19.5,42.46875 -19.5,19 -19.5,17.5 C -19.5,16.220971 -19.980469,13.394531 -21.6875,11.6875 C -23.6875,9.6875 -24.6875,8.6875 -26.6875,6.6875 C -28.394531,4.9804687 -31.220971,4.5 -32.5,4.5 C -34,4.5 -51.46875,4.5 -51.46875,4.5 z"
         id="path5174"
         style="fill:none;fill-opacity:1;stroke:url(#linearGradient6448);stroke-width:1;stroke-miterlimit:4;display:inline"
         inkscape:original="M -51.46875 3.5 C -52.589967 3.5 -53.5 4.4100329 -53.5 5.53125 L -53.5 42.46875 C -53.5 43.589967 -52.589966 44.5 -51.46875 44.5 L -20.53125 44.5 C -19.410033 44.5 -18.5 43.589966 -18.5 42.46875 C -18.5 42.46875 -18.5 19 -18.5 17.5 C -18.5 16 -19 13 -21 11 C -23 9 -24 8 -26 6 C -28 4 -31 3.5 -32.5 3.5 C -34 3.5 -51.468749 3.5 -51.46875 3.5 z "
         inkscape:radius="-0.99436891"
         sodipodi:type="inkscape:offset" />
      <path
         sodipodi:nodetypes="ccccczc"
         id="path5170"
         d="M -122.5,364 C -123.88889,364 -122.54207,364.49709 -121.15625,365.125 C -119.77043,365.75291 -116.18337,368.34005 -117,372 C -112.67669,371.56942 -110.32087,375.12238 -110,376.28125 C -109.67913,377.44012 -109,378.88889 -109,377.5 C -108.97167,373.69442 -111.84543,371.0683 -113.84375,368.84375 C -115.84207,366.6192 -118.84621,364.47676 -122.5,364 z"
         style="fill:url(#radialGradient6457);fill-opacity:1;stroke:none;stroke-width:1;stroke-miterlimit:4;display:inline" />
      <path
         sodipodi:nodetypes="ccccc"
         id="path5172"
         d="M -121.39912,365.01435 C -120.47682,365.01435 -118.39068,371.21001 -119.31298,375.3436 C -115.01802,374.91584 -110.4596,375.43178 -110,376.28125 C -110.32087,375.12238 -112.67669,371.56942 -117,372 C -116.13534,368.12476 -120.18657,365.3827 -121.39912,365.01435 z"
         style="opacity:0.87854249;fill:url(#linearGradient6453);fill-opacity:1;stroke:none;stroke-width:1;stroke-miterlimit:4;display:inline" />
      <g
         transform="translate(-200,-50)"
         style="opacity:0.6"
         id="g5141">
        <g
           id="g6349"
           style="opacity:1"
           transform="translate(0,50)">
          <rect
             y="371.5"
             x="78.500008"
             height="3"
             width="5"
             id="rect6240"
             style="opacity:1;fill:none;fill-opacity:1;stroke:#888a85;stroke-width:1;stroke-linejoin:round;stroke-miterlimit:4;stroke-dasharray:none;stroke-opacity:1;display:inline" />
          <rect
             y="371.5"
             x="63.5"
             height="3"
             width="5"
             id="rect5184"
             style="opacity:1;fill:none;fill-opacity:1;stroke:#888a85;stroke-width:1;stroke-linejoin:round;stroke-miterlimit:4;stroke-dasharray:none;stroke-opacity:1;display:inline" />
          <rect
             y="371.5"
             x="73.500008"
             height="3"
             width="5"
             id="rect5186"
             style="opacity:1;fill:none;fill-opacity:1;stroke:#888a85;stroke-width:1;stroke-linejoin:round;stroke-miterlimit:4;stroke-dasharray:none;stroke-opacity:1;display:inline" />
          <rect
             y="374.5"
             x="78.500008"
             height="3"
             width="5"
             id="rect6242"
             style="opacity:1;fill:none;fill-opacity:1;stroke:#888a85;stroke-width:1;stroke-linejoin:round;stroke-miterlimit:4;stroke-dasharray:none;stroke-opacity:1;display:inline" />
          <rect
             y="371.5"
             x="68.5"
             height="3"
             width="5"
             id="rect5188"
             style="opacity:1;fill:none;fill-opacity:1;stroke:#888a85;stroke-width:1;stroke-linejoin:round;stroke-miterlimit:4;stroke-dasharray:none;stroke-opacity:1;display:inline" />
          <rect
             y="374.5"
             x="63.5"
             height="3"
             width="5"
             id="rect5192"
             style="opacity:1;fill:none;fill-opacity:1;stroke:#888a85;stroke-width:1;stroke-linejoin:round;stroke-miterlimit:4;stroke-dasharray:none;stroke-opacity:1;display:inline" />
          <rect
             y="371.5"
             x="59.5"
             height="3"
             width="4"
             id="rect5182"
             style="opacity:1;fill:#babdb6;fill-opacity:1;stroke:#555753;stroke-width:1;stroke-linejoin:round;stroke-miterlimit:4;stroke-dasharray:none;stroke-opacity:1;display:inline" />
          <rect
             y="374.5"
             x="73.500008"
             height="3"
             width="5"
             id="rect5194"
             style="opacity:1;fill:none;fill-opacity:1;stroke:#888a85;stroke-width:1;stroke-linejoin:round;stroke-miterlimit:4;stroke-dasharray:none;stroke-opacity:1;display:inline" />
          <rect
             y="374.5"
             x="68.5"
             height="3"
             width="5"
             id="rect5196"
             style="opacity:1;fill:none;fill-opacity:1;stroke:#888a85;stroke-width:1;stroke-linejoin:round;stroke-miterlimit:4;stroke-dasharray:none;stroke-opacity:1;display:inline" />
          <rect
             y="377.5"
             x="63.5"
             height="3"
             width="5"
             id="rect5200"
             style="opacity:1;fill:none;fill-opacity:1;stroke:#888a85;stroke-width:1;stroke-linejoin:round;stroke-miterlimit:4;stroke-dasharray:none;stroke-opacity:1;display:inline" />
          <rect
             y="374.5"
             x="59.5"
             height="3"
             width="4"
             id="rect5190"
             style="opacity:1;fill:#babdb6;fill-opacity:1;stroke:#555753;stroke-width:1;stroke-linejoin:round;stroke-miterlimit:4;stroke-dasharray:none;stroke-opacity:1;display:inline" />
          <rect
             y="377.5"
             x="73.500008"
             height="3"
             width="5"
             id="rect5202"
             style="opacity:1;fill:none;fill-opacity:1;stroke:#888a85;stroke-width:1;stroke-linejoin:round;stroke-miterlimit:4;stroke-dasharray:none;stroke-opacity:1;display:inline" />
          <rect
             y="380.5"
             x="63.5"
             height="3"
             width="5"
             id="rect6258"
             style="opacity:1;fill:none;fill-opacity:1;stroke:#888a85;stroke-width:1;stroke-linejoin:round;stroke-miterlimit:4;stroke-dasharray:none;stroke-opacity:1;display:inline" />
          <rect
             y="377.5"
             x="68.5"
             height="3"
             width="5"
             id="rect5204"
             style="opacity:1;fill:none;fill-opacity:1;stroke:#888a85;stroke-width:1;stroke-linejoin:round;stroke-miterlimit:4;stroke-dasharray:none;stroke-opacity:1;display:inline" />
          <rect
             y="368.5"
             x="59.5"
             height="3"
             width="4"
             id="rect5208"
             style="opacity:1;fill:#729fcf;fill-opacity:1;stroke:#204a87;stroke-width:1;stroke-linejoin:round;stroke-miterlimit:4;stroke-dasharray:none;stroke-opacity:1;display:inline" />
          <rect
             y="377.5"
             x="59.5"
             height="3"
             width="4"
             id="rect5198"
             style="opacity:1;fill:#babdb6;fill-opacity:1;stroke:#555753;stroke-width:1;stroke-linejoin:round;stroke-miterlimit:4;stroke-dasharray:none;stroke-opacity:1;display:inline" />
          <rect
             y="368.5"
             x="63.5"
             height="3"
             width="5"
             id="rect5210"
             style="opacity:1;fill:#729fcf;fill-opacity:1;stroke:#204a87;stroke-width:1;stroke-linejoin:round;stroke-miterlimit:4;stroke-dasharray:none;stroke-opacity:1;display:inline" />
          <rect
             y="368.5"
             x="73.500008"
             height="3"
             width="5"
             id="rect5212"
             style="opacity:1;fill:#729fcf;fill-opacity:1;stroke:#204a87;stroke-width:1;stroke-linejoin:round;stroke-miterlimit:4;stroke-dasharray:none;stroke-opacity:1;display:inline" />
          <rect
             y="368.5"
             x="68.5"
             height="3"
             width="5"
             id="rect5214"
             style="opacity:1;fill:#729fcf;fill-opacity:1;stroke:#204a87;stroke-width:1;stroke-linejoin:round;stroke-miterlimit:4;stroke-dasharray:none;stroke-opacity:1;display:inline" />
          <rect
             y="377.5"
             x="78.500008"
             height="3"
             width="5"
             id="rect6244"
             style="opacity:1;fill:none;fill-opacity:1;stroke:#888a85;stroke-width:1;stroke-linejoin:round;stroke-miterlimit:4;stroke-dasharray:none;stroke-opacity:1;display:inline" />
          <rect
             y="368.5"
             x="78.500008"
             height="3"
             width="5"
             id="rect6246"
             style="opacity:1;fill:url(#linearGradient5209);fill-opacity:1;stroke:url(#linearGradient5211);stroke-width:1;stroke-linejoin:round;stroke-miterlimit:4;stroke-dasharray:none;stroke-opacity:1;display:inline" />
          <rect
             y="374.5"
             x="83.5"
             height="3"
             width="5"
             id="rect6250"
             style="opacity:1;fill:none;fill-opacity:1;stroke:#888a85;stroke-width:1;stroke-linejoin:round;stroke-miterlimit:4;stroke-dasharray:none;stroke-opacity:1;display:inline" />
          <rect
             y="377.5"
             x="83.5"
             height="3"
             width="5"
             id="rect6252"
             style="opacity:1;fill:none;fill-opacity:1;stroke:#888a85;stroke-width:1;stroke-linejoin:round;stroke-miterlimit:4;stroke-dasharray:none;stroke-opacity:1;display:inline" />
          <rect
             y="380.5"
             x="73.500008"
             height="3"
             width="5"
             id="rect6260"
             style="opacity:1;fill:none;fill-opacity:1;stroke:#888a85;stroke-width:1;stroke-linejoin:round;stroke-miterlimit:4;stroke-dasharray:none;stroke-opacity:1;display:inline" />
          <rect
             y="380.5"
             x="68.5"
             height="3"
             width="5"
             id="rect6262"
             style="opacity:1;fill:none;fill-opacity:1;stroke:#888a85;stroke-width:1;stroke-linejoin:round;stroke-miterlimit:4;stroke-dasharray:none;stroke-opacity:1;display:inline" />
          <rect
             y="380.5"
             x="78.500008"
             height="3"
             width="5"
             id="rect6264"
             style="opacity:1;fill:none;fill-opacity:1;stroke:#888a85;stroke-width:1;stroke-linejoin:round;stroke-miterlimit:4;stroke-dasharray:none;stroke-opacity:1;display:inline" />
          <rect
             y="380.5"
             x="83.5"
             height="3"
             width="5"
             id="rect6266"
             style="opacity:1;fill:none;fill-opacity:1;stroke:#888a85;stroke-width:1;stroke-linejoin:round;stroke-miterlimit:4;stroke-dasharray:none;stroke-opacity:1;display:inline" />
          <rect
             y="383.5"
             x="63.5"
             height="3"
             width="5"
             id="rect6270"
             style="opacity:1;fill:none;fill-opacity:1;stroke:#888a85;stroke-width:1;stroke-linejoin:round;stroke-miterlimit:4;stroke-dasharray:none;stroke-opacity:1;display:inline" />
          <rect
             y="380.5"
             x="59.5"
             height="3"
             width="4"
             id="rect6256"
             style="opacity:1;fill:#babdb6;fill-opacity:1;stroke:#555753;stroke-width:1;stroke-linejoin:round;stroke-miterlimit:4;stroke-dasharray:none;stroke-opacity:1;display:inline" />
          <rect
             y="383.5"
             x="73.500008"
             height="3"
             width="5"
             id="rect6272"
             style="opacity:1;fill:none;fill-opacity:1;stroke:#888a85;stroke-width:1;stroke-linejoin:round;stroke-miterlimit:4;stroke-dasharray:none;stroke-opacity:1;display:inline" />
          <rect
             y="383.5"
             x="68.5"
             height="3"
             width="5"
             id="rect6274"
             style="opacity:1;fill:none;fill-opacity:1;stroke:#888a85;stroke-width:1;stroke-linejoin:round;stroke-miterlimit:4;stroke-dasharray:none;stroke-opacity:1;display:inline" />
          <rect
             y="383.5"
             x="78.500008"
             height="3"
             width="5"
             id="rect6276"
             style="opacity:1;fill:none;fill-opacity:1;stroke:#888a85;stroke-width:1;stroke-linejoin:round;stroke-miterlimit:4;stroke-dasharray:none;stroke-opacity:1;display:inline" />
          <rect
             y="383.5"
             x="83.5"
             height="3"
             width="5"
             id="rect6278"
             style="opacity:1;fill:none;fill-opacity:1;stroke:#888a85;stroke-width:1;stroke-linejoin:round;stroke-miterlimit:4;stroke-dasharray:none;stroke-opacity:1;display:inline" />
          <rect
             y="386.5"
             x="63.5"
             height="3"
             width="5"
             id="rect6282"
             style="opacity:1;fill:none;fill-opacity:1;stroke:#888a85;stroke-width:1;stroke-linejoin:round;stroke-miterlimit:4;stroke-dasharray:none;stroke-opacity:1;display:inline" />
          <rect
             y="383.5"
             x="59.5"
             height="3"
             width="4"
             id="rect6268"
             style="opacity:1;fill:#babdb6;fill-opacity:1;stroke:#555753;stroke-width:1;stroke-linejoin:round;stroke-miterlimit:4;stroke-dasharray:none;stroke-opacity:1;display:inline" />
          <rect
             y="386.5"
             x="73.500008"
             height="3"
             width="5"
             id="rect6284"
             style="opacity:1;fill:none;fill-opacity:1;stroke:#888a85;stroke-width:1;stroke-linejoin:round;stroke-miterlimit:4;stroke-dasharray:none;stroke-opacity:1;display:inline" />
          <rect
             y="386.5"
             x="68.5"
             height="3"
             width="5"
             id="rect6286"
             style="opacity:1;fill:none;fill-opacity:1;stroke:#888a85;stroke-width:1;stroke-linejoin:round;stroke-miterlimit:4;stroke-dasharray:none;stroke-opacity:1;display:inline" />
          <rect
             y="386.5"
             x="78.500008"
             height="3"
             width="5"
             id="rect6288"
             style="opacity:1;fill:none;fill-opacity:1;stroke:#888a85;stroke-width:1;stroke-linejoin:round;stroke-miterlimit:4;stroke-dasharray:none;stroke-opacity:1;display:inline" />
          <rect
             y="386.5"
             x="83.5"
             height="3"
             width="5"
             id="rect6290"
             style="opacity:1;fill:none;fill-opacity:1;stroke:#888a85;stroke-width:1;stroke-linejoin:round;stroke-miterlimit:4;stroke-dasharray:none;stroke-opacity:1;display:inline" />
          <rect
             y="389.5"
             x="63.5"
             height="3"
             width="5"
             id="rect6294"
             style="opacity:1;fill:none;fill-opacity:1;stroke:#888a85;stroke-width:1;stroke-linejoin:round;stroke-miterlimit:4;stroke-dasharray:none;stroke-opacity:1;display:inline" />
          <rect
             y="386.5"
             x="59.5"
             height="3"
             width="4"
             id="rect6280"
             style="opacity:1;fill:#babdb6;fill-opacity:1;stroke:#555753;stroke-width:1;stroke-linejoin:round;stroke-miterlimit:4;stroke-dasharray:none;stroke-opacity:1;display:inline" />
          <rect
             y="389.5"
             x="73.500008"
             height="3"
             width="5"
             id="rect6296"
             style="opacity:1;fill:none;fill-opacity:1;stroke:#888a85;stroke-width:1;stroke-linejoin:round;stroke-miterlimit:4;stroke-dasharray:none;stroke-opacity:1;display:inline" />
          <rect
             y="389.5"
             x="68.5"
             height="3"
             width="5"
             id="rect6298"
             style="opacity:1;fill:none;fill-opacity:1;stroke:#888a85;stroke-width:1;stroke-linejoin:round;stroke-miterlimit:4;stroke-dasharray:none;stroke-opacity:1;display:inline" />
          <rect
             y="389.5"
             x="78.500008"
             height="3"
             width="5"
             id="rect6300"
             style="opacity:1;fill:none;fill-opacity:1;stroke:#888a85;stroke-width:1;stroke-linejoin:round;stroke-miterlimit:4;stroke-dasharray:none;stroke-opacity:1;display:inline" />
          <rect
             y="389.5"
             x="83.5"
             height="3"
             width="5"
             id="rect6302"
             style="opacity:1;fill:none;fill-opacity:1;stroke:#888a85;stroke-width:1;stroke-linejoin:round;stroke-miterlimit:4;stroke-dasharray:none;stroke-opacity:1;display:inline" />
          <rect
             y="392.5"
             x="63.5"
             height="3"
             width="5"
             id="rect6306"
             style="opacity:1;fill:none;fill-opacity:1;stroke:#888a85;stroke-width:1;stroke-linejoin:round;stroke-miterlimit:4;stroke-dasharray:none;stroke-opacity:1;display:inline" />
          <rect
             y="389.5"
             x="59.5"
             height="3"
             width="4"
             id="rect6292"
             style="opacity:1;fill:#babdb6;fill-opacity:1;stroke:#555753;stroke-width:1;stroke-linejoin:round;stroke-miterlimit:4;stroke-dasharray:none;stroke-opacity:1;display:inline" />
          <rect
             y="392.5"
             x="73.500008"
             height="3"
             width="5"
             id="rect6308"
             style="opacity:1;fill:none;fill-opacity:1;stroke:#888a85;stroke-width:1;stroke-linejoin:round;stroke-miterlimit:4;stroke-dasharray:none;stroke-opacity:1;display:inline" />
          <rect
             y="392.5"
             x="68.5"
             height="3"
             width="5"
             id="rect6310"
             style="opacity:1;fill:none;fill-opacity:1;stroke:#888a85;stroke-width:1;stroke-linejoin:round;stroke-miterlimit:4;stroke-dasharray:none;stroke-opacity:1;display:inline" />
          <rect
             y="392.5"
             x="78.500008"
             height="3"
             width="5"
             id="rect6312"
             style="opacity:1;fill:none;fill-opacity:1;stroke:#888a85;stroke-width:1;stroke-linejoin:round;stroke-miterlimit:4;stroke-dasharray:none;stroke-opacity:1;display:inline" />
          <rect
             y="392.5"
             x="83.5"
             height="3"
             width="5"
             id="rect6314"
             style="opacity:1;fill:none;fill-opacity:1;stroke:#888a85;stroke-width:1;stroke-linejoin:round;stroke-miterlimit:4;stroke-dasharray:none;stroke-opacity:1;display:inline" />
          <rect
             y="395.5"
             x="63.5"
             height="3"
             width="5"
             id="rect6320"
             style="opacity:1;fill:none;fill-opacity:1;stroke:#888a85;stroke-width:1;stroke-linejoin:round;stroke-miterlimit:4;stroke-dasharray:none;stroke-opacity:1;display:inline" />
          <rect
             y="392.5"
             x="59.5"
             height="3"
             width="4"
             id="rect6304"
             style="opacity:1;fill:#babdb6;fill-opacity:1;stroke:#555753;stroke-width:1;stroke-linejoin:round;stroke-miterlimit:4;stroke-dasharray:none;stroke-opacity:1;display:inline" />
          <rect
             y="395.5"
             x="59.5"
             height="3"
             width="4"
             id="rect6316"
             style="opacity:1;fill:#babdb6;fill-opacity:1;stroke:#555753;stroke-width:1;stroke-linejoin:round;stroke-miterlimit:4;stroke-dasharray:none;stroke-opacity:1;display:inline" />
          <rect
             y="395.5"
             x="73.500008"
             height="3"
             width="5"
             id="rect6322"
             style="opacity:1;fill:none;fill-opacity:1;stroke:#888a85;stroke-width:1;stroke-linejoin:round;stroke-miterlimit:4;stroke-dasharray:none;stroke-opacity:1;display:inline" />
          <rect
             y="395.5"
             x="68.5"
             height="3"
             width="5"
             id="rect6324"
             style="opacity:1;fill:none;fill-opacity:1;stroke:#888a85;stroke-width:1;stroke-linejoin:round;stroke-miterlimit:4;stroke-dasharray:none;stroke-opacity:1;display:inline" />
          <rect
             y="395.5"
             x="78.500008"
             height="3"
             width="5"
             id="rect6329"
             style="opacity:1;fill:none;fill-opacity:1;stroke:#888a85;stroke-width:1;stroke-linejoin:round;stroke-miterlimit:4;stroke-dasharray:none;stroke-opacity:1;display:inline" />
          <rect
             y="395.5"
             x="83.5"
             height="3"
             width="5"
             id="rect6331"
             style="opacity:1;fill:none;fill-opacity:1;stroke:#888a85;stroke-width:1;stroke-linejoin:round;stroke-miterlimit:4;stroke-dasharray:none;stroke-opacity:1;display:inline" />
        </g>
        <g
           id="g5133"
           transform="translate(0,50)">
          <rect
             y="380.5"
             x="68.5"
             height="18"
             width="20"
             id="rect4351"
             style="opacity:1;fill:url(#linearGradient5665);fill-opacity:1;stroke:#2e3436;stroke-width:1;stroke-linecap:butt;stroke-linejoin:round;stroke-miterlimit:4;stroke-dasharray:1, 2;stroke-dashoffset:0.5;stroke-opacity:1" />
        </g>
      </g>
      <g
         transform="translate(-200,0)"
         style="opacity:1"
         id="g5652">
        <path
           sodipodi:nodetypes="cccccccccc"
           style="fill:url(#linearGradient5641);fill-opacity:1;fill-rule:evenodd;stroke:none;stroke-width:1px;stroke-linecap:round;stroke-linejoin:round;stroke-opacity:1;display:inline"
           d="M 70.5,391.5 L 75.5,388.5 L 77.5,390.5 L 81.5,386.5 L 83.5,388.5 L 85.5,386.5 L 86.5,387.5 L 86.5,396.5 L 70.5,396.5 L 70.5,391.5"
           id="path5633" />
        <g
           id="g5569"
           style="opacity:1">
          <path
             id="path5123"
             d="M 70.5,382.5 L 70.5,396.5 L 86.5,396.5"
             style="opacity:1;fill:none;fill-rule:evenodd;stroke:#888a85;stroke-width:1px;stroke-linecap:square;stroke-linejoin:miter;stroke-opacity:1;display:inline" />
        </g>
      </g>
    </g>
  </g>
</svg>
